<?xml version="1.0" standalone="no"?>
<!DOCTYPE svg PUBLIC "-//W3C//DTD SVG 20010904//EN"
 "http://www.w3.org/TR/2001/REC-SVG-20010904/DTD/svg10.dtd">
<svg version="1.0" xmlns="http://www.w3.org/2000/svg"
 width="70.000000pt" height="70.000000pt" viewBox="0 0 70.000000 70.000000"
 preserveAspectRatio="xMidYMid meet">
<metadata>
Created by potrace 1.11, written by Peter Selinger 2001-2013
</metadata>
<g transform="translate(0.000000,70.000000) scale(0.100000,-0.100000)"
fill="#000000" stroke="none">
<path d="M232 626 c-44 -15 -102 -73 -109 -109 -4 -19 -19 -37 -44 -53 -72
-45 -94 -114 -59 -192 23 -50 62 -72 130 -72 27 0 50 -4 50 -10 0 -5 -11 -10
-24 -10 -41 0 -38 -15 15 -70 56 -58 54 -58 121 13 40 43 41 57 2 57 -13 0
-24 5 -24 10 0 6 17 10 38 10 37 0 39 -1 40 -35 2 -49 7 -54 52 -53 46 0 54 8
52 55 l-1 33 85 0 c78 0 87 2 108 25 51 54 37 143 -25 169 -18 8 -38 29 -52
57 -21 42 -80 84 -100 72 -12 -7 -47 8 -47 21 0 14 -45 59 -76 74 -32 17 -96
20 -132 8z m114 -37 c31 -14 48 -31 61 -59 17 -38 20 -39 65 -40 39 0 50 -5
72 -31 14 -17 26 -41 26 -55 0 -13 3 -24 8 -25 46 -4 81 -31 86 -65 5 -29 -21
-73 -47 -79 -12 -4 -52 -5 -87 -3 -61 3 -65 4 -64 28 0 17 6 26 19 28 41 8 39
22 -10 72 -27 28 -53 50 -58 50 -13 0 -97 -93 -97 -107 0 -8 12 -13 28 -13 24
0 28 -4 27 -27 -2 -25 -6 -28 -43 -31 -35 -3 -42 0 -43 15 0 10 -1 38 -2 63
l-2 45 -40 0 -40 0 -1 -60 -1 -60 -39 -3 c-99 -9 -161 92 -108 173 8 13 33 30
55 39 28 11 39 22 39 36 0 47 42 99 95 118 43 15 54 14 101 -9z m100 -240 c15
-17 16 -22 4 -29 -10 -6 -16 -28 -17 -62 0 -29 -2 -67 -2 -85 -1 -24 -5 -31
-15 -27 -11 4 -14 24 -12 85 2 64 0 82 -13 89 -14 7 -13 11 3 29 24 26 28 26
52 0z m-185 -51 c1 -18 1 -57 1 -86 0 -38 4 -55 14 -59 13 -5 12 -8 -2 -24
-22 -24 -36 -24 -59 1 -16 18 -16 20 -2 20 15 0 17 13 17 90 0 73 3 90 15 90
10 0 15 -11 16 -32z"/>
</g>
</svg>
